---
http_interactions:
- request:
    method: post
    uri: https://fdt-auth.smarttrust.welton.ee/connect/token
    body:
      encoding: UTF-8
      string: client_id=config_env['OAUTH_CLIENT_ID']&client_secret=config_env['OAUTH_CLIENT_SECRET']&grant_type=client_credentials&scope=PartnerApi
    headers:
      User-Agent:
      - Faraday v1.0.1
      Content-Type:
      - application/x-www-form-urlencoded
      Accept-Encoding:
      - gzip;q=1.0,deflate;q=0.6,identity;q=0.3
      Accept:
      - "*/*"
  response:
    status:
      code: 200
      message: OK
    headers:
      Date:
      - Mon, 14 Feb 2022 13:19:59 GMT
      Content-Type:
      - application/json; charset=UTF-8
      Content-Length:
      - '1352'
      Connection:
      - keep-alive
      Cache-Control:
      - no-store, no-cache, max-age=0
      Pragma:
      - no-cache
      Vary:
      - Accept-Encoding
      Server:
      - Microsoft-IIS/10.0
      Strict-Transport-Security:
      - max-age=31536000; includeSubDomains
      X-Content-Type-Options:
      - nosniff
      X-Xss-Protection:
      - 1; mode=block
      Content-Security-Policy:
      - script-src 'self' 'unsafe-inline';style-src 'self' 'unsafe-inline' use.typekit.net
        p.typekit.net pro.fontawesome.com;img-src 'self' https://cdn.1stdigital.com
        data:;font-src 'self' use.typekit.net p.typekit.net pro.fontawesome.com;frame-ancestors
        'self' https://fdt-backoffice.smarttrust.welton.ee https://fdt-portal.smarttrust.welton.ee
        https://smarttrust.welton.ee;block-all-mixed-content
      Feature-Policy:
      - accelerometer 'none'; camera 'none'; geolocation 'none'; gyroscope 'none';
        magnetometer 'none'; microphone 'none'; payment 'none'; usb 'none'
      X-Powered-By:
      - ASP.NET
    body:
      encoding: ASCII-8BIT
      string: '{"access_token":"eyJhbGciOiJSUzI1NiIsImtpZCI6Ijc5QjU1NjRGNTIwRDQ1NzZDM0U4MzdCMjM1RTk2MTZGNDdFNjUzM0RSUzI1NiIsInR5cCI6ImF0K2p3dCIsIng1dCI6ImViVldUMUlOUlhiRDZEZXlOZWxoYjBmbVV6MCJ9.eyJuYmYiOjE2NDQ4NDQ3OTksImV4cCI6MTY0NDg0ODM5OSwiaXNzIjoiaHR0cHM6Ly9mZHQtYXV0aC5zbWFydHRydXN0LndlbHRvbi5lZSIsImF1ZCI6IlBhcnRuZXJBcGkiLCJjbGllbnRfaWQiOiJpbmstdGVzdC1jbGllbnQiLCJjbGllbnRfcGFydG5lci5pZCI6IjciLCJjbGllbnRfc2NvcGUiOlsicmVhZCIsIndyaXRlIl0sImlhdCI6MTY0NDg0NDc5OSwic2NvcGUiOlsiUGFydG5lckFwaSJdfQ.rgKriPAnlIkDe8g-Kuzw3gmsyffYhvJZKWf_Xx6tlCuNoB1Tv7t0pJAOSX2SWLehYgEe_HyhlPLoMyUSInFcthtBXr9W2O3YvuzC1Y73eTdXKODA_6w6Y_BwcreBbwJ3sKWpHDvKKOJj7X751-Dxwtw722CuEwPcHjuvL4InNzTCss41z9f18lt3y-k-Y7fUFOqVd9WZPLU9XdLzpgSG1CyUY80FUZE6kzx00fb1SWo8ih3Dpu_aWvOuQR40UuKYTVZg-4URVTWXvhpePpuP0W4AXkXftrsy6yuNtCwAD80cA_zgALOA_3LwzWHnR3Bcgc_Sz8f7hVJMnMz27xIFs81ImdrFMA3TePOz-oDs2pOFyW3uqZgTTlsP_EjEqUz5H7-VsrmSbauJB_9IYGrfxM415ZgJG2jPkGAkJY_1-MyFhPIWvfEeeSfzGQvyvdlItnMcAG4BL0MCtjediQgT85GBnj-cYMLTUSQ4NEpJW-D6TmhYQnjpPaCObK8eOeUQMrj5WkUSGe1GONpi49bHeeFPbE_rmipsK6tuUvCWljtaKH92jc2ydMC4FqpXeAn56nKOGjDxbaPpwmB4e-hPi0zp5X2W28WQ7CpO_OHqb1pi2bDOBnNJLm0VAY8gvIGn756-3wTIs4APGgJUCDa2D7bz_d-5NjpQ0Ai7Mkj7Ws8","expires_in":3600,"token_type":"Bearer","scope":"PartnerApi"}'
  recorded_at: Mon, 14 Feb 2022 13:19:59 GMT
- request:
    method: get
    uri: https://partner-api-aggregator-dev.k8s.smarttrust.app/ams/accounts?cId=config_env['GLOBAL_CLIENT_ID']
    body:
      encoding: US-ASCII
      string: ''
    headers:
      User-Agent:
      - Faraday v1.0.1
      Content-Type:
      - application/json
      Api-Version:
      - 1.0.0
      Authorization:
      - Bearer eyJhbGciOiJSUzI1NiIsImtpZCI6Ijc5QjU1NjRGNTIwRDQ1NzZDM0U4MzdCMjM1RTk2MTZGNDdFNjUzM0RSUzI1NiIsInR5cCI6ImF0K2p3dCIsIng1dCI6ImViVldUMUlOUlhiRDZEZXlOZWxoYjBmbVV6MCJ9.eyJuYmYiOjE2NDQ4NDQ3OTksImV4cCI6MTY0NDg0ODM5OSwiaXNzIjoiaHR0cHM6Ly9mZHQtYXV0aC5zbWFydHRydXN0LndlbHRvbi5lZSIsImF1ZCI6IlBhcnRuZXJBcGkiLCJjbGllbnRfaWQiOiJpbmstdGVzdC1jbGllbnQiLCJjbGllbnRfcGFydG5lci5pZCI6IjciLCJjbGllbnRfc2NvcGUiOlsicmVhZCIsIndyaXRlIl0sImlhdCI6MTY0NDg0NDc5OSwic2NvcGUiOlsiUGFydG5lckFwaSJdfQ.rgKriPAnlIkDe8g-Kuzw3gmsyffYhvJZKWf_Xx6tlCuNoB1Tv7t0pJAOSX2SWLehYgEe_HyhlPLoMyUSInFcthtBXr9W2O3YvuzC1Y73eTdXKODA_6w6Y_BwcreBbwJ3sKWpHDvKKOJj7X751-Dxwtw722CuEwPcHjuvL4InNzTCss41z9f18lt3y-k-Y7fUFOqVd9WZPLU9XdLzpgSG1CyUY80FUZE6kzx00fb1SWo8ih3Dpu_aWvOuQR40UuKYTVZg-4URVTWXvhpePpuP0W4AXkXftrsy6yuNtCwAD80cA_zgALOA_3LwzWHnR3Bcgc_Sz8f7hVJMnMz27xIFs81ImdrFMA3TePOz-oDs2pOFyW3uqZgTTlsP_EjEqUz5H7-VsrmSbauJB_9IYGrfxM415ZgJG2jPkGAkJY_1-MyFhPIWvfEeeSfzGQvyvdlItnMcAG4BL0MCtjediQgT85GBnj-cYMLTUSQ4NEpJW-D6TmhYQnjpPaCObK8eOeUQMrj5WkUSGe1GONpi49bHeeFPbE_rmipsK6tuUvCWljtaKH92jc2ydMC4FqpXeAn56nKOGjDxbaPpwmB4e-hPi0zp5X2W28WQ7CpO_OHqb1pi2bDOBnNJLm0VAY8gvIGn756-3wTIs4APGgJUCDa2D7bz_d-5NjpQ0Ai7Mkj7Ws8
      Accept-Encoding:
      - gzip;q=1.0,deflate;q=0.6,identity;q=0.3
      Accept:
      - "*/*"
  response:
    status:
      code: 200
      message: OK
    headers:
      Date:
      - Mon, 14 Feb 2022 13:19:59 GMT
      Content-Type:
      - application/json; charset=utf-8
      Transfer-Encoding:
      - chunked
      Connection:
      - keep-alive
      Vary:
      - Accept-Encoding
      Server:
      - Microsoft-IIS/10.0
      X-Powered-By:
      - ASP.NET
    body:
      encoding: ASCII-8BIT
      string: '[{"id":2366,"clientId":config_env[''GLOBAL_CLIENT_ID''],"serviceEntityId":35,"assetName":"United
        States Dollar","assetSymbol":"USD","assetAccountName":null,"assetAccountNumber":"10100000config_env[''GLOBAL_SERVICE_ACCOUNT_ID'']15","balance":33192.95000000},{"id":2367,"clientId":config_env[''GLOBAL_CLIENT_ID''],"serviceEntityId":35,"assetName":"TrueUSD","assetSymbol":"TUSD","assetAccountName":null,"assetAccountNumber":"102000004875","balance":0.00000000}]'
  recorded_at: Mon, 14 Feb 2022 13:19:59 GMT
- request:
    method: post
    uri: https://fdt-auth.smarttrust.welton.ee/connect/token
    body:
      encoding: UTF-8
      string: client_id=config_env['OAUTH_CLIENT_ID']&client_secret=config_env['OAUTH_CLIENT_SECRET']&grant_type=client_credentials&scope=PartnerApi
    headers:
      User-Agent:
      - Faraday v1.0.1
      Content-Type:
      - application/x-www-form-urlencoded
      Accept-Encoding:
      - gzip;q=1.0,deflate;q=0.6,identity;q=0.3
      Accept:
      - "*/*"
  response:
    status:
      code: 200
      message: OK
    headers:
      Date:
      - Mon, 14 Feb 2022 13:20:00 GMT
      Content-Type:
      - application/json; charset=UTF-8
      Content-Length:
      - '1346'
      Connection:
      - keep-alive
      Cache-Control:
      - no-store, no-cache, max-age=0
      Pragma:
      - no-cache
      Vary:
      - Accept-Encoding
      Server:
      - Microsoft-IIS/10.0
      Strict-Transport-Security:
      - max-age=31536000; includeSubDomains
      X-Content-Type-Options:
      - nosniff
      X-Xss-Protection:
      - 1; mode=block
      Content-Security-Policy:
      - script-src 'self' 'unsafe-inline';style-src 'self' 'unsafe-inline' use.typekit.net
        p.typekit.net pro.fontawesome.com;img-src 'self' https://cdn.1stdigital.com
        data:;font-src 'self' use.typekit.net p.typekit.net pro.fontawesome.com;frame-ancestors
        'self' https://fdt-backoffice.smarttrust.welton.ee https://fdt-portal.smarttrust.welton.ee
        https://smarttrust.welton.ee;block-all-mixed-content
      Feature-Policy:
      - accelerometer 'none'; camera 'none'; geolocation 'none'; gyroscope 'none';
        magnetometer 'none'; microphone 'none'; payment 'none'; usb 'none'
      X-Powered-By:
      - ASP.NET
    body:
      encoding: ASCII-8BIT
      string: '{"access_token":"eyJhbGciOiJSUzI1NiIsImtpZCI6Ijc5QjU1NjRGNTIwRDQ1NzZDM0U4MzdCMjM1RTk2MTZGNDdFNjUzM0RSUzI1NiIsInR5cCI6ImF0K2p3dCIsIng1dCI6ImViVldUMUlOUlhiRDZEZXlOZWxoYjBmbVV6MCJ9.eyJuYmYiOjE2NDQ4NDQ4MDAsImV4cCI6MTY0NDg0ODQwMCwiaXNzIjoiaHR0cHM6Ly9mZHQtYXV0aC5zbWFydHRydXN0LndlbHRvbi5lZSIsImF1ZCI6IlBhcnRuZXJBcGkiLCJjbGllbnRfaWQiOiJpbmstdGVzdC1jbGllbnQiLCJjbGllbnRfcGFydG5lci5pZCI6IjciLCJjbGllbnRfc2NvcGUiOlsicmVhZCIsIndyaXRlIl0sImlhdCI6MTY0NDg0NDgwMCwic2NvcGUiOlsiUGFydG5lckFwaSJdfQ.dqxEUx3fQOxLiVi_72NHpafM3dC-qp4_eoNNML0a1NVZVmtquBY8yOZ2povybzRlRZ9Vb39iOt1eun2tz2B93nVRmqXQUCW-CpbVapCGZtfirhz6bcI-T5U9NDFPgOzWRl5fA3mY-9VHBlIJC4ypzqe3KAkIyaO82F5cW93pcb41rh7oN5FzPbOaOJRY_kqhJcHf3VzmCMbW7_3e8afljhJJpVSy4VutV3pi445t12QHDQZhA9v__KZonGc9kqpDCFv9htACRlJ2vlB7gm0AeNzB6hH45hjYgGfWkLQ9WlEfP74EakcYGUPdsd7NONi-tRXQ2CGZFNPChqdTqa_6CXhOvonPKrJRmMHkj5bf6Ykrlb3UYnmGM01DoUs07Eqz4zULah_OLvqh4dZb4BgTWCipksE5gYOWTkldeYWrU21Nx19eboYApLlmhYCq2xjMS8BusGtXfuDRJAconfig_env[''GLOBAL_SERVICE_ACCOUNT_ID'']J1q84hAiAZaluv-5GKAvQOG6PH2CuKO6bm4o62f_MXoF69MR0yVo5-ukobZFFQabMLiUZLxdcEaYeJRs2pU7irr9phXMxY8DALAIM-duxo3AVqV1nF5P45VLgr1A2HZebgBdzxJv8t9MW1PRK7QMZCTCNzNoJFo-mndCKRhbAr6Kmhu0jQPYSwLEJtFPSO2xuGd6x3BoXcsFEP_V3k4Kf-LBvZc","expires_in":3600,"token_type":"Bearer","scope":"PartnerApi"}'
  recorded_at: Mon, 14 Feb 2022 13:20:00 GMT
- request:
    method: get
    uri: https://partner-api-aggregator-dev.k8s.smarttrust.app/ams/transactions?aaId=2366&seId=35
    body:
      encoding: US-ASCII
      string: ''
    headers:
      User-Agent:
      - Faraday v1.0.1
      Content-Type:
      - application/json
      Api-Version:
      - 1.0.0
      Authorization:
      - Bearer eyJhbGciOiJSUzI1NiIsImtpZCI6Ijc5QjU1NjRGNTIwRDQ1NzZDM0U4MzdCMjM1RTk2MTZGNDdFNjUzM0RSUzI1NiIsInR5cCI6ImF0K2p3dCIsIng1dCI6ImViVldUMUlOUlhiRDZEZXlOZWxoYjBmbVV6MCJ9.eyJuYmYiOjE2NDQ4NDQ4MDAsImV4cCI6MTY0NDg0ODQwMCwiaXNzIjoiaHR0cHM6Ly9mZHQtYXV0aC5zbWFydHRydXN0LndlbHRvbi5lZSIsImF1ZCI6IlBhcnRuZXJBcGkiLCJjbGllbnRfaWQiOiJpbmstdGVzdC1jbGllbnQiLCJjbGllbnRfcGFydG5lci5pZCI6IjciLCJjbGllbnRfc2NvcGUiOlsicmVhZCIsIndyaXRlIl0sImlhdCI6MTY0NDg0NDgwMCwic2NvcGUiOlsiUGFydG5lckFwaSJdfQ.dqxEUx3fQOxLiVi_72NHpafM3dC-qp4_eoNNML0a1NVZVmtquBY8yOZ2povybzRlRZ9Vb39iOt1eun2tz2B93nVRmqXQUCW-CpbVapCGZtfirhz6bcI-T5U9NDFPgOzWRl5fA3mY-9VHBlIJC4ypzqe3KAkIyaO82F5cW93pcb41rh7oN5FzPbOaOJRY_kqhJcHf3VzmCMbW7_3e8afljhJJpVSy4VutV3pi445t12QHDQZhA9v__KZonGc9kqpDCFv9htACRlJ2vlB7gm0AeNzB6hH45hjYgGfWkLQ9WlEfP74EakcYGUPdsd7NONi-tRXQ2CGZFNPChqdTqa_6CXhOvonPKrJRmMHkj5bf6Ykrlb3UYnmGM01DoUs07Eqz4zULah_OLvqh4dZb4BgTWCipksE5gYOWTkldeYWrU21Nx19eboYApLlmhYCq2xjMS8BusGtXfuDRJAconfig_env['GLOBAL_SERVICE_ACCOUNT_ID']J1q84hAiAZaluv-5GKAvQOG6PH2CuKO6bm4o62f_MXoF69MR0yVo5-ukobZFFQabMLiUZLxdcEaYeJRs2pU7irr9phXMxY8DALAIM-duxo3AVqV1nF5P45VLgr1A2HZebgBdzxJv8t9MW1PRK7QMZCTCNzNoJFo-mndCKRhbAr6Kmhu0jQPYSwLEJtFPSO2xuGd6x3BoXcsFEP_V3k4Kf-LBvZc
      Accept-Encoding:
      - gzip;q=1.0,deflate;q=0.6,identity;q=0.3
      Accept:
      - "*/*"
  response:
    status:
      code: 200
      message: OK
    headers:
      Date:
      - Mon, 14 Feb 2022 13:20:00 GMT
      Content-Type:
      - application/json; charset=utf-8
      Transfer-Encoding:
      - chunked
      Connection:
      - keep-alive
      Vary:
      - Accept-Encoding
      Server:
      - Microsoft-IIS/10.0
      X-Powered-By:
      - ASP.NET
    body:
      encoding: ASCII-8BIT
      string: '{"currentPage":1,"pageSize":20,"totalCount":31,"totalPages":2,"hasNext":true,"hasPrevious":false,"results":[{"id":9138,"clientId":config_env[''GLOBAL_CLIENT_ID''],"serviceEntityId":35,"serviceEntityName":"Complete
        Custody","assetSymbol":"USD","assetName":"United States Dollar","assetAccountId":2366,"date":"2021-08-17T08:40:49.14","valuationDate":"2020-11-12T00:00:00","executionDate":"2020-11-12T00:00:00","transactionNumber":"BNK1/2020/0001","reference":"Deposit
        from BnkToTheFuture Test Co Limited","description":"CMR-CZXZUE","qty":10000.00000000,"price":1.00000000,"amount":10000.00000000,"transactionTypeCode":"ACMT-
        ADOP-BCKV"},{"id":9139,"clientId":config_env[''GLOBAL_CLIENT_ID''],"serviceEntityId":35,"serviceEntityName":"Complete
        Custody","assetSymbol":"USD","assetName":"United States Dollar","assetAccountId":2366,"date":"2021-08-17T08:40:49.14","valuationDate":"2020-11-12T00:00:00","executionDate":"2020-11-12T00:00:00","transactionNumber":"BNK1/2020/0002","reference":"Deposit
        from BnkToTheFuture Test Co Limited","description":"CMR-RL11RJ","qty":9132.45000000,"price":1.00000000,"amount":9132.45000000,"transactionTypeCode":"ACMT-
        ADOP-BCKV"},{"id":9140,"clientId":config_env[''GLOBAL_CLIENT_ID''],"serviceEntityId":35,"serviceEntityName":"Complete
        Custody","assetSymbol":"USD","assetName":"United States Dollar","assetAccountId":2366,"date":"2021-08-17T08:40:49.14","valuationDate":"2020-11-12T00:00:00","executionDate":"2020-11-12T00:00:00","transactionNumber":"BNK1/2020/0003","reference":"Payment
        to Roboexpert","description":"CMP-LXPGEL","qty":-5000.00000000,"price":1.00000000,"amount":-5000.00000000,"transactionTypeCode":"ACMT-
        ADOP-BCKV"},{"id":9191,"clientId":config_env[''GLOBAL_CLIENT_ID''],"serviceEntityId":35,"serviceEntityName":"Complete
        Custody","assetSymbol":"USD","assetName":"United States Dollar","assetAccountId":2366,"date":"2021-08-17T08:40:49.1833333","valuationDate":"2021-01-15T00:00:00","executionDate":"2021-01-15T00:00:00","transactionNumber":"BNK1/2021/0004","reference":"CMR-ZR4QTV","description":"BnkToTheFuture
        Test Co Limited Deposit","qty":100.50000000,"price":1.00000000,"amount":100.50000000,"transactionTypeCode":"ACMT-
        ADOP-BCKV"},{"id":9248,"clientId":config_env[''GLOBAL_CLIENT_ID''],"serviceEntityId":35,"serviceEntityName":"Complete
        Custody","assetSymbol":"USD","assetName":"United States Dollar","assetAccountId":2366,"date":"2021-08-17T08:40:49.23","valuationDate":"2021-01-25T00:00:00","executionDate":"2021-01-25T00:00:00","transactionNumber":"BNK1/2021/0005","reference":"CMP-S7234U","description":"Payment
        to Konrad Org01","qty":-900.00000000,"price":1.00000000,"amount":-900.00000000,"transactionTypeCode":"ACMT-
        ADOP-BCKV"},{"id":9249,"clientId":config_env[''GLOBAL_CLIENT_ID''],"serviceEntityId":35,"serviceEntityName":"Complete
        Custody","assetSymbol":"USD","assetName":"United States Dollar","assetAccountId":2366,"date":"2021-08-17T08:40:49.23","valuationDate":"2021-01-25T00:00:00","executionDate":"2021-01-25T00:00:00","transactionNumber":"BNK1/2021/0006","reference":"CMP-XIZKLI","description":"payment
        to Konrad 02","qty":-config_env[''GLOBAL_CLIENT_ID'']0.00000000,"price":1.00000000,"amount":-config_env[''GLOBAL_CLIENT_ID'']0.00000000,"transactionTypeCode":"ACMT-
        ADOP-BCKV"},{"id":9250,"clientId":config_env[''GLOBAL_CLIENT_ID''],"serviceEntityId":35,"serviceEntityName":"Complete
        Custody","assetSymbol":"USD","assetName":"United States Dollar","assetAccountId":2366,"date":"2021-08-17T08:40:49.23","valuationDate":"2021-01-25T00:00:00","executionDate":"2021-01-25T00:00:00","transactionNumber":"BNK1/2021/0011","reference":"CMP-ED7ICP","description":"payment
        to Konrad 01","qty":-50.00000000,"price":1.00000000,"amount":-50.00000000,"transactionTypeCode":"ACMT-
        ADOP-BCKV"},{"id":9251,"clientId":config_env[''GLOBAL_CLIENT_ID''],"serviceEntityId":35,"serviceEntityName":"Complete
        Custody","assetSymbol":"USD","assetName":"United States Dollar","assetAccountId":2366,"date":"2021-08-17T08:40:49.2333333","valuationDate":"2021-01-25T00:00:00","executionDate":"2021-01-25T00:00:00","transactionNumber":"BNK1/2021/0007","reference":"CMR-XIH8H6","description":"Deposit
        to BnkToTheFuture Test Co Limited","qty":2200.00000000,"price":1.00000000,"amount":2200.00000000,"transactionTypeCode":"ACMT-
        ADOP-BCKV"},{"id":9252,"clientId":config_env[''GLOBAL_CLIENT_ID''],"serviceEntityId":35,"serviceEntityName":"Complete
        Custody","assetSymbol":"USD","assetName":"United States Dollar","assetAccountId":2366,"date":"2021-08-17T08:40:49.2333333","valuationDate":"2021-01-25T00:00:00","executionDate":"2021-01-25T00:00:00","transactionNumber":"BNK1/2021/0008","reference":"CMR-UCM7ZG","description":"deposit
        to BnkToTheFuture Test Co Limited","qty":500.00000000,"price":1.00000000,"amount":500.00000000,"transactionTypeCode":"ACMT-
        ADOP-BCKV"},{"id":9253,"clientId":config_env[''GLOBAL_CLIENT_ID''],"serviceEntityId":35,"serviceEntityName":"Complete
        Custody","assetSymbol":"USD","assetName":"United States Dollar","assetAccountId":2366,"date":"2021-08-17T08:40:49.2333333","valuationDate":"2021-01-25T00:00:00","executionDate":"2021-01-25T00:00:00","transactionNumber":"BNK1/2021/0010","reference":"CMR-4TD05Z","description":"Deposit
        to BnkToTheFuture Test Co Limited","qty":100.00000000,"price":1.00000000,"amount":100.00000000,"transactionTypeCode":"ACMT-
        ADOP-BCKV"},{"id":9254,"clientId":config_env[''GLOBAL_CLIENT_ID''],"serviceEntityId":35,"serviceEntityName":"Complete
        Custody","assetSymbol":"USD","assetName":"United States Dollar","assetAccountId":2366,"date":"2021-08-17T08:40:49.2333333","valuationDate":"2021-01-25T00:00:00","executionDate":"2021-01-25T00:00:00","transactionNumber":"BNK1/2021/0009","reference":"CMR-4TD05Z","description":"Deposit
        to BnkToTheFuture Test Co Limited","qty":200.00000000,"price":1.00000000,"amount":200.00000000,"transactionTypeCode":"ACMT-
        ADOP-BCKV"},{"id":9267,"clientId":config_env[''GLOBAL_CLIENT_ID''],"serviceEntityId":35,"serviceEntityName":"Complete
        Custody","assetSymbol":"USD","assetName":"United States Dollar","assetAccountId":2366,"date":"2021-08-17T08:40:49.2433333","valuationDate":"2021-01-29T00:00:00","executionDate":"2021-01-29T00:00:00","transactionNumber":"BNK1/2021/0023","reference":"CMR-SQP3OB","description":"BnkToTheFuture
        Test Co Limited","qty":5000.00000000,"price":1.00000000,"amount":5000.00000000,"transactionTypeCode":"ACMT-
        ADOP-BCKV"},{"id":9268,"clientId":config_env[''GLOBAL_CLIENT_ID''],"serviceEntityId":35,"serviceEntityName":"Complete
        Custody","assetSymbol":"USD","assetName":"United States Dollar","assetAccountId":2366,"date":"2021-08-17T08:40:49.2466667","valuationDate":"2021-01-29T00:00:00","executionDate":"2021-01-29T00:00:00","transactionNumber":"BNK1/2021/0022","reference":"CMR-SQP3OB","description":"Deposit
        to BnkToTheFuture Test Co Limited","qty":6000.00000000,"price":1.00000000,"amount":6000.00000000,"transactionTypeCode":"ACMT-
        ADOP-BCKV"},{"id":9270,"clientId":config_env[''GLOBAL_CLIENT_ID''],"serviceEntityId":35,"serviceEntityName":"Complete
        Custody","assetSymbol":"USD","assetName":"United States Dollar","assetAccountId":2366,"date":"2021-08-17T08:40:49.2466667","valuationDate":"2021-01-29T00:00:00","executionDate":"2021-01-29T00:00:00","transactionNumber":"BNK1/2021/0020","reference":"CMR-4TD05Z","description":"Deposit
        to BnkToTheFuture Test Co Limited","qty":1000.00000000,"price":1.00000000,"amount":1000.00000000,"transactionTypeCode":"ACMT-
        ADOP-BCKV"},{"id":9271,"clientId":config_env[''GLOBAL_CLIENT_ID''],"serviceEntityId":35,"serviceEntityName":"Complete
        Custody","assetSymbol":"USD","assetName":"United States Dollar","assetAccountId":2366,"date":"2021-08-17T08:40:49.2466667","valuationDate":"2021-01-29T00:00:00","executionDate":"2021-01-29T00:00:00","transactionNumber":"BNK1/2021/0019","reference":"CMR-4TD05Z
        ","description":"Deposit to BnkToTheFuture Test Co Limited","qty":2000.00000000,"price":1.00000000,"amount":2000.00000000,"transactionTypeCode":"ACMT-
        ADOP-BCKV"},{"id":9272,"clientId":config_env[''GLOBAL_CLIENT_ID''],"serviceEntityId":35,"serviceEntityName":"Complete
        Custody","assetSymbol":"USD","assetName":"United States Dollar","assetAccountId":2366,"date":"2021-08-17T08:40:49.25","valuationDate":"2021-01-29T00:00:00","executionDate":"2021-01-29T00:00:00","transactionNumber":"BNK1/2021/0018","reference":"CMR-4TD05Z","description":"\tDeposit
        to BnkToTheFuture Test Co Limited","qty":config_env[''GLOBAL_CLIENT_ID'']00.00000000,"price":1.00000000,"amount":config_env[''GLOBAL_CLIENT_ID'']00.00000000,"transactionTypeCode":"ACMT-
        ADOP-BCKV"},{"id":9273,"clientId":config_env[''GLOBAL_CLIENT_ID''],"serviceEntityId":35,"serviceEntityName":"Complete
        Custody","assetSymbol":"USD","assetName":"United States Dollar","assetAccountId":2366,"date":"2021-08-17T08:40:49.25","valuationDate":"2021-01-29T00:00:00","executionDate":"2021-01-29T00:00:00","transactionNumber":"BNK1/2021/0017","reference":"CMR-UCM7ZG","description":"Deposit
        to BnkToTheFuture Test Co Limited","qty":500.00000000,"price":1.00000000,"amount":500.00000000,"transactionTypeCode":"ACMT-
        ADOP-BCKV"},{"id":9274,"clientId":config_env[''GLOBAL_CLIENT_ID''],"serviceEntityId":35,"serviceEntityName":"Complete
        Custody","assetSymbol":"USD","assetName":"United States Dollar","assetAccountId":2366,"date":"2021-08-17T08:40:49.25","valuationDate":"2021-01-29T00:00:00","executionDate":"2021-01-29T00:00:00","transactionNumber":"BNK1/2021/0016","reference":"CMR-UCM7ZG","description":"Deposit
        to BnkToTheFuture Test Co Limited","qty":1500.00000000,"price":1.00000000,"amount":1500.00000000,"transactionTypeCode":"ACMT-
        ADOP-BCKV"},{"id":9275,"clientId":config_env[''GLOBAL_CLIENT_ID''],"serviceEntityId":35,"serviceEntityName":"Complete
        Custody","assetSymbol":"USD","assetName":"United States Dollar","assetAccountId":2366,"date":"2021-08-17T08:40:49.25","valuationDate":"2021-01-29T00:00:00","executionDate":"2021-01-29T00:00:00","transactionNumber":"BNK1/2021/0015","reference":"CMR-UCM7ZG","description":"Deposit
        to BnkToTheFuture Test Co Limited","qty":2000.00000000,"price":1.00000000,"amount":2000.00000000,"transactionTypeCode":"ACMT-
        ADOP-BCKV"},{"id":9276,"clientId":config_env[''GLOBAL_CLIENT_ID''],"serviceEntityId":35,"serviceEntityName":"Complete
        Custody","assetSymbol":"USD","assetName":"United States Dollar","assetAccountId":2366,"date":"2021-08-17T08:40:49.25","valuationDate":"2021-01-29T00:00:00","executionDate":"2021-01-29T00:00:00","transactionNumber":"BNK1/2021/0014","reference":"CMR-XIH8H6","description":"Deposit
        to BnkToTheFuture Test Co Limited","qty":2200.00000000,"price":1.00000000,"amount":2200.00000000,"transactionTypeCode":"ACMT-
        ADOP-BCKV"}]}'
  recorded_at: Mon, 14 Feb 2022 13:20:00 GMT
recorded_with: VCR 6.0.0
