---
http_interactions:
- request:
    method: post
    uri: https://fdt-auth.smarttrust.welton.ee/connect/token
    body:
      encoding: UTF-8
      string: client_id=config_env['OAUTH_CLIENT_ID']&client_secret=config_env['OAUTH_CLIENT_SECRET']&grant_type=client_credentials&scope=PartnerApi
    headers:
      User-Agent:
      - Faraday v1.0.1
      Content-Type:
      - application/x-www-form-urlencoded
      Accept-Encoding:
      - gzip;q=1.0,deflate;q=0.6,identity;q=0.3
      Accept:
      - "*/*"
  response:
    status:
      code: 200
      message: OK
    headers:
      Date:
      - Mon, 14 Feb 2022 13:19:57 GMT
      Content-Type:
      - application/json; charset=UTF-8
      Transfer-Encoding:
      - chunked
      Connection:
      - keep-alive
      Cache-Control:
      - no-store, no-cache, max-age=0
      Pragma:
      - no-cache
      Vary:
      - Accept-Encoding
      Server:
      - Microsoft-IIS/10.0
      Strict-Transport-Security:
      - max-age=31536000; includeSubDomains
      X-Content-Type-Options:
      - nosniff
      X-Xss-Protection:
      - 1; mode=block
      Content-Security-Policy:
      - script-src 'self' 'unsafe-inline';style-src 'self' 'unsafe-inline' use.typekit.net
        p.typekit.net pro.fontawesome.com;img-src 'self' https://cdn.1stdigital.com
        data:;font-src 'self' use.typekit.net p.typekit.net pro.fontawesome.com;frame-ancestors
        'self' https://fdt-backoffice.smarttrust.welton.ee https://fdt-portal.smarttrust.welton.ee
        https://smarttrust.welton.ee;block-all-mixed-content
      Feature-Policy:
      - accelerometer 'none'; camera 'none'; geolocation 'none'; gyroscope 'none';
        magnetometer 'none'; microphone 'none'; payment 'none'; usb 'none'
      X-Powered-By:
      - ASP.NET
    body:
      encoding: ASCII-8BIT
      string: '{"access_token":"eyJhbGciOiJSUzI1NiIsImtpZCI6Ijc5QjU1NjRGNTIwRDQ1NzZDM0U4MzdCMjM1RTk2MTZGNDdFNjUzM0RSUzI1NiIsInR5cCI6ImF0K2p3dCIsIng1dCI6ImViVldUMUlOUlhiRDZEZXlOZWxoYjBmbVV6MCJ9.eyJuYmYiOjE2NDQ4NDQ3OTcsImV4cCI6MTY0NDg0ODM5NywiaXNzIjoiaHR0cHM6Ly9mZHQtYXV0aC5zbWFydHRydXN0LndlbHRvbi5lZSIsImF1ZCI6IlBhcnRuZXJBcGkiLCJjbGllbnRfaWQiOiJpbmstdGVzdC1jbGllbnQiLCJjbGllbnRfcGFydG5lci5pZCI6IjciLCJjbGllbnRfc2NvcGUiOlsicmVhZCIsIndyaXRlIl0sImlhdCI6MTY0NDg0NDc5Nywic2NvcGUiOlsiUGFydG5lckFwaSJdfQ.odBEIksY0I2nOdxh9nYX8KxtOQAoZm2-ewCDU2TU_ri20SP9fkhrt2f4Lz_nAPoFrnFxt5FsF4L5Kd2eKaYccLX12BuWNGnjn4t7MIGK6FBaM1IvbptqHpxuJMjayOP5kK913fzRh1eaaqjiYWridXOQrc9DpXu_SGEmulfz1AAbzOdCr4pbgVe4IfBaaD6aLZlD5d8343uzZI81Qbnq2lK8sFBYXK6iIGX-o7m5fX-r4uJsc758t3bB6PvH4Y5_6j9V4YmV6E7-uKNqluqAuhLQSAjuTL2oET5L0W8QoTiLdb1RMlfFrfRPiOSXiHY0hcKkvjkwyJmCxg8wm5a_0IPpMcofSDd5iwLAGRngj3DV4gUYpMpsyobwzqJ3ibrNeuzds9yT3SSZ2B9Ku6k-RWPY_fWwQdImFRt0aGsYZEIK9ZWMgF2b-IyB1KE7bxx7bEowE4CwYSfV5q5Y3GSIX46-XbaD8MZx7VwVpsSwu0uQTiMeiimsrsxMC5CMZw2isOSlwPtBxV3Mln61cHLGs9M2EYL41t8QcOk-r2xdb0kDqfew7VaN7e8LWSy5G1fqXl_rWK9d6BXDatfUzKuJpgFScHqaCa1OPZs95LIS_uXYtP93OqeMKW_Csg4SDvbA5Yk2BBoHYT_7d01WRO687Xw8vaTh3AelB0krYCc0m5w","expires_in":3600,"token_type":"Bearer","scope":"PartnerApi"}'
  recorded_at: Mon, 14 Feb 2022 13:19:57 GMT
- request:
    method: get
    uri: https://fdt-partner-api.smarttrust.welton.ee/ams/accounts?cId=config_env['GLOBAL_CLIENT_ID']
    body:
      encoding: US-ASCII
      string: ''
    headers:
      User-Agent:
      - Faraday v1.0.1
      Content-Type:
      - application/json
      Api-Version:
      - 1.0.0
      Authorization:
      - Bearer eyJhbGciOiJSUzI1NiIsImtpZCI6Ijc5QjU1NjRGNTIwRDQ1NzZDM0U4MzdCMjM1RTk2MTZGNDdFNjUzM0RSUzI1NiIsInR5cCI6ImF0K2p3dCIsIng1dCI6ImViVldUMUlOUlhiRDZEZXlOZWxoYjBmbVV6MCJ9.eyJuYmYiOjE2NDQ4NDQ3OTcsImV4cCI6MTY0NDg0ODM5NywiaXNzIjoiaHR0cHM6Ly9mZHQtYXV0aC5zbWFydHRydXN0LndlbHRvbi5lZSIsImF1ZCI6IlBhcnRuZXJBcGkiLCJjbGllbnRfaWQiOiJpbmstdGVzdC1jbGllbnQiLCJjbGllbnRfcGFydG5lci5pZCI6IjciLCJjbGllbnRfc2NvcGUiOlsicmVhZCIsIndyaXRlIl0sImlhdCI6MTY0NDg0NDc5Nywic2NvcGUiOlsiUGFydG5lckFwaSJdfQ.odBEIksY0I2nOdxh9nYX8KxtOQAoZm2-ewCDU2TU_ri20SP9fkhrt2f4Lz_nAPoFrnFxt5FsF4L5Kd2eKaYccLX12BuWNGnjn4t7MIGK6FBaM1IvbptqHpxuJMjayOP5kK913fzRh1eaaqjiYWridXOQrc9DpXu_SGEmulfz1AAbzOdCr4pbgVe4IfBaaD6aLZlD5d8343uzZI81Qbnq2lK8sFBYXK6iIGX-o7m5fX-r4uJsc758t3bB6PvH4Y5_6j9V4YmV6E7-uKNqluqAuhLQSAjuTL2oET5L0W8QoTiLdb1RMlfFrfRPiOSXiHY0hcKkvjkwyJmCxg8wm5a_0IPpMcofSDd5iwLAGRngj3DV4gUYpMpsyobwzqJ3ibrNeuzds9yT3SSZ2B9Ku6k-RWPY_fWwQdImFRt0aGsYZEIK9ZWMgF2b-IyB1KE7bxx7bEowE4CwYSfV5q5Y3GSIX46-XbaD8MZx7VwVpsSwu0uQTiMeiimsrsxMC5CMZw2isOSlwPtBxV3Mln61cHLGs9M2EYL41t8QcOk-r2xdb0kDqfew7VaN7e8LWSy5G1fqXl_rWK9d6BXDatfUzKuJpgFScHqaCa1OPZs95LIS_uXYtP93OqeMKW_Csg4SDvbA5Yk2BBoHYT_7d01WRO687Xw8vaTh3AelB0krYCc0m5w
      Accept-Encoding:
      - gzip;q=1.0,deflate;q=0.6,identity;q=0.3
      Accept:
      - "*/*"
  response:
    status:
      code: 200
      message: OK
    headers:
      Date:
      - Mon, 14 Feb 2022 13:19:57 GMT
      Content-Type:
      - application/json; charset=utf-8
      Transfer-Encoding:
      - chunked
      Connection:
      - keep-alive
      Vary:
      - Accept-Encoding
      Server:
      - Microsoft-IIS/10.0
      X-Powered-By:
      - ASP.NET
    body:
      encoding: ASCII-8BIT
      string: '[{"id":2366,"clientId":config_env[''GLOBAL_CLIENT_ID''],"serviceEntityId":35,"assetName":"United
        States Dollar","assetSymbol":"USD","assetAccountName":null,"assetAccountNumber":"10100000config_env[''GLOBAL_SERVICE_ACCOUNT_ID'']15","balance":33192.95000000},{"id":2367,"clientId":config_env[''GLOBAL_CLIENT_ID''],"serviceEntityId":35,"assetName":"TrueUSD","assetSymbol":"TUSD","assetAccountName":null,"assetAccountNumber":"102000004875","balance":0.00000000}]'
  recorded_at: Mon, 14 Feb 2022 13:19:57 GMT
- request:
    method: post
    uri: https://fdt-auth.smarttrust.welton.ee/connect/token
    body:
      encoding: UTF-8
      string: client_id=config_env['OAUTH_CLIENT_ID']&client_secret=config_env['OAUTH_CLIENT_SECRET']&grant_type=client_credentials&scope=PartnerApi
    headers:
      User-Agent:
      - Faraday v1.0.1
      Content-Type:
      - application/x-www-form-urlencoded
      Accept-Encoding:
      - gzip;q=1.0,deflate;q=0.6,identity;q=0.3
      Accept:
      - "*/*"
  response:
    status:
      code: 200
      message: OK
    headers:
      Date:
      - Mon, 14 Feb 2022 13:19:58 GMT
      Content-Type:
      - application/json; charset=UTF-8
      Transfer-Encoding:
      - chunked
      Connection:
      - keep-alive
      Cache-Control:
      - no-store, no-cache, max-age=0
      Pragma:
      - no-cache
      Vary:
      - Accept-Encoding
      Server:
      - Microsoft-IIS/10.0
      Strict-Transport-Security:
      - max-age=31536000; includeSubDomains
      X-Content-Type-Options:
      - nosniff
      X-Xss-Protection:
      - 1; mode=block
      Content-Security-Policy:
      - script-src 'self' 'unsafe-inline';style-src 'self' 'unsafe-inline' use.typekit.net
        p.typekit.net pro.fontawesome.com;img-src 'self' https://cdn.1stdigital.com
        data:;font-src 'self' use.typekit.net p.typekit.net pro.fontawesome.com;frame-ancestors
        'self' https://fdt-backoffice.smarttrust.welton.ee https://fdt-portal.smarttrust.welton.ee
        https://smarttrust.welton.ee;block-all-mixed-content
      Feature-Policy:
      - accelerometer 'none'; camera 'none'; geolocation 'none'; gyroscope 'none';
        magnetometer 'none'; microphone 'none'; payment 'none'; usb 'none'
      X-Powered-By:
      - ASP.NET
    body:
      encoding: ASCII-8BIT
      string: '{"access_token":"eyJhbGciOiJSUzI1NiIsImtpZCI6Ijc5QjU1NjRGNTIwRDQ1NzZDM0U4MzdCMjM1RTk2MTZGNDdFNjUzM0RSUzI1NiIsInR5cCI6ImF0K2p3dCIsIng1dCI6ImViVldUMUlOUlhiRDZEZXlOZWxoYjBmbVV6MCJ9.eyJuYmYiOjE2NDQ4NDQ3OTgsImV4cCI6MTY0NDg0ODM5OCwiaXNzIjoiaHR0cHM6Ly9mZHQtYXV0aC5zbWFydHRydXN0LndlbHRvbi5lZSIsImF1ZCI6IlBhcnRuZXJBcGkiLCJjbGllbnRfaWQiOiJpbmstdGVzdC1jbGllbnQiLCJjbGllbnRfcGFydG5lci5pZCI6IjciLCJjbGllbnRfc2NvcGUiOlsicmVhZCIsIndyaXRlIl0sImlhdCI6MTY0NDg0NDc5OCwic2NvcGUiOlsiUGFydG5lckFwaSJdfQ.H42OzJ2Z9EgK41tTNMEalY6OMMFSJvy4xFMhrTZNHQBiBrrPmcA6csa-AKlzr9c3S8TK_LyHcHNeNU9U9HBIZcdnZmEULpaQpWiq6ODHxuEE8eh3jSKeJq4DAqa3iw1FDcdoA1cE34erEZ-itE3v0ahlGjNV6vBfshaAZrkApOiLe9zyKSEKdFGODG9kLVXTIzvKg9T-QQsBlCoApqjpZN0lx1FHZL97NuuDNM58PUSW8daTatkyVl8wKgH3LYRsnMGdYaAKzgoFjzXwGmewc7O-mRU3bBKs8bq9_cAr2WzdUNTKUSzECFr3kfzI8U_vT8g1dAUnllusSr7oHeG2Sconfig_env[''GLOBAL_CLIENT_ID'']PEYDGOT8YwJyVhFf4u1f6a6nvRJwRoX9egek0NXWu6yXCMqh6FNTqsNfyvcaPpMyuVedhbnRv2i00cKK7b0B5LbHB12mj6nDmczfnWooV0UkV0lYCM3KYHj4hNy48wtAPrdHzaamQmR0AoqClXP88jSVvYJTkxNjVjFc-GpNp_09mBtuW5GFND9HOS-y8J0AwmjSTOgdYxM76FlpVjKrQGpzE3bXAv8r7c6Hh6qKU2EqNwxWoFhYKBBF1KckcrzXnPTyk-f-A7L7e5WQDFVJv1-7VIGwPng_2-YHTNQEvhC9pe8-HCL2gHyBWK84GVO-0W_cLO6EzeGA-9ZNmQ0Y","expires_in":3600,"token_type":"Bearer","scope":"PartnerApi"}'
  recorded_at: Mon, 14 Feb 2022 13:19:58 GMT
- request:
    method: get
    uri: https://fdt-partner-api.smarttrust.welton.ee/ams/transactions?aaId=2366&seId=35
    body:
      encoding: US-ASCII
      string: ''
    headers:
      User-Agent:
      - Faraday v1.0.1
      Content-Type:
      - application/json
      Api-Version:
      - 1.0.0
      Authorization:
      - Bearer eyJhbGciOiJSUzI1NiIsImtpZCI6Ijc5QjU1NjRGNTIwRDQ1NzZDM0U4MzdCMjM1RTk2MTZGNDdFNjUzM0RSUzI1NiIsInR5cCI6ImF0K2p3dCIsIng1dCI6ImViVldUMUlOUlhiRDZEZXlOZWxoYjBmbVV6MCJ9.eyJuYmYiOjE2NDQ4NDQ3OTgsImV4cCI6MTY0NDg0ODM5OCwiaXNzIjoiaHR0cHM6Ly9mZHQtYXV0aC5zbWFydHRydXN0LndlbHRvbi5lZSIsImF1ZCI6IlBhcnRuZXJBcGkiLCJjbGllbnRfaWQiOiJpbmstdGVzdC1jbGllbnQiLCJjbGllbnRfcGFydG5lci5pZCI6IjciLCJjbGllbnRfc2NvcGUiOlsicmVhZCIsIndyaXRlIl0sImlhdCI6MTY0NDg0NDc5OCwic2NvcGUiOlsiUGFydG5lckFwaSJdfQ.H42OzJ2Z9EgK41tTNMEalY6OMMFSJvy4xFMhrTZNHQBiBrrPmcA6csa-AKlzr9c3S8TK_LyHcHNeNU9U9HBIZcdnZmEULpaQpWiq6ODHxuEE8eh3jSKeJq4DAqa3iw1FDcdoA1cE34erEZ-itE3v0ahlGjNV6vBfshaAZrkApOiLe9zyKSEKdFGODG9kLVXTIzvKg9T-QQsBlCoApqjpZN0lx1FHZL97NuuDNM58PUSW8daTatkyVl8wKgH3LYRsnMGdYaAKzgoFjzXwGmewc7O-mRU3bBKs8bq9_cAr2WzdUNTKUSzECFr3kfzI8U_vT8g1dAUnllusSr7oHeG2Sconfig_env['GLOBAL_CLIENT_ID']PEYDGOT8YwJyVhFf4u1f6a6nvRJwRoX9egek0NXWu6yXCMqh6FNTqsNfyvcaPpMyuVedhbnRv2i00cKK7b0B5LbHB12mj6nDmczfnWooV0UkV0lYCM3KYHj4hNy48wtAPrdHzaamQmR0AoqClXP88jSVvYJTkxNjVjFc-GpNp_09mBtuW5GFND9HOS-y8J0AwmjSTOgdYxM76FlpVjKrQGpzE3bXAv8r7c6Hh6qKU2EqNwxWoFhYKBBF1KckcrzXnPTyk-f-A7L7e5WQDFVJv1-7VIGwPng_2-YHTNQEvhC9pe8-HCL2gHyBWK84GVO-0W_cLO6EzeGA-9ZNmQ0Y
      Accept-Encoding:
      - gzip;q=1.0,deflate;q=0.6,identity;q=0.3
      Accept:
      - "*/*"
  response:
    status:
      code: 200
      message: OK
    headers:
      Date:
      - Mon, 14 Feb 2022 13:19:58 GMT
      Content-Type:
      - application/json; charset=utf-8
      Transfer-Encoding:
      - chunked
      Connection:
      - keep-alive
      Vary:
      - Accept-Encoding
      Server:
      - Microsoft-IIS/10.0
      X-Powered-By:
      - ASP.NET
    body:
      encoding: ASCII-8BIT
      string: '{"currentPage":1,"pageSize":20,"totalCount":31,"totalPages":2,"hasNext":true,"hasPrevious":false,"results":[{"id":9138,"clientId":config_env[''GLOBAL_CLIENT_ID''],"serviceEntityId":35,"serviceEntityName":"Complete
        Custody","assetSymbol":"USD","assetName":"United States Dollar","assetAccountId":2366,"date":"2021-08-17T08:40:49.14","valuationDate":"2020-11-12T00:00:00","executionDate":"2020-11-12T00:00:00","transactionNumber":"BNK1/2020/0001","reference":"Deposit
        from BnkToTheFuture Test Co Limited","description":"CMR-CZXZUE","qty":10000.00000000,"price":1.00000000,"amount":10000.00000000,"transactionTypeCode":"ACMT-
        ADOP-BCKV"},{"id":9139,"clientId":config_env[''GLOBAL_CLIENT_ID''],"serviceEntityId":35,"serviceEntityName":"Complete
        Custody","assetSymbol":"USD","assetName":"United States Dollar","assetAccountId":2366,"date":"2021-08-17T08:40:49.14","valuationDate":"2020-11-12T00:00:00","executionDate":"2020-11-12T00:00:00","transactionNumber":"BNK1/2020/0002","reference":"Deposit
        from BnkToTheFuture Test Co Limited","description":"CMR-RL11RJ","qty":9132.45000000,"price":1.00000000,"amount":9132.45000000,"transactionTypeCode":"ACMT-
        ADOP-BCKV"},{"id":9140,"clientId":config_env[''GLOBAL_CLIENT_ID''],"serviceEntityId":35,"serviceEntityName":"Complete
        Custody","assetSymbol":"USD","assetName":"United States Dollar","assetAccountId":2366,"date":"2021-08-17T08:40:49.14","valuationDate":"2020-11-12T00:00:00","executionDate":"2020-11-12T00:00:00","transactionNumber":"BNK1/2020/0003","reference":"Payment
        to Roboexpert","description":"CMP-LXPGEL","qty":-5000.00000000,"price":1.00000000,"amount":-5000.00000000,"transactionTypeCode":"ACMT-
        ADOP-BCKV"},{"id":9191,"clientId":config_env[''GLOBAL_CLIENT_ID''],"serviceEntityId":35,"serviceEntityName":"Complete
        Custody","assetSymbol":"USD","assetName":"United States Dollar","assetAccountId":2366,"date":"2021-08-17T08:40:49.1833333","valuationDate":"2021-01-15T00:00:00","executionDate":"2021-01-15T00:00:00","transactionNumber":"BNK1/2021/0004","reference":"CMR-ZR4QTV","description":"BnkToTheFuture
        Test Co Limited Deposit","qty":100.50000000,"price":1.00000000,"amount":100.50000000,"transactionTypeCode":"ACMT-
        ADOP-BCKV"},{"id":9248,"clientId":config_env[''GLOBAL_CLIENT_ID''],"serviceEntityId":35,"serviceEntityName":"Complete
        Custody","assetSymbol":"USD","assetName":"United States Dollar","assetAccountId":2366,"date":"2021-08-17T08:40:49.23","valuationDate":"2021-01-25T00:00:00","executionDate":"2021-01-25T00:00:00","transactionNumber":"BNK1/2021/0005","reference":"CMP-S7234U","description":"Payment
        to Konrad Org01","qty":-900.00000000,"price":1.00000000,"amount":-900.00000000,"transactionTypeCode":"ACMT-
        ADOP-BCKV"},{"id":9249,"clientId":config_env[''GLOBAL_CLIENT_ID''],"serviceEntityId":35,"serviceEntityName":"Complete
        Custody","assetSymbol":"USD","assetName":"United States Dollar","assetAccountId":2366,"date":"2021-08-17T08:40:49.23","valuationDate":"2021-01-25T00:00:00","executionDate":"2021-01-25T00:00:00","transactionNumber":"BNK1/2021/0006","reference":"CMP-XIZKLI","description":"payment
        to Konrad 02","qty":-config_env[''GLOBAL_CLIENT_ID'']0.00000000,"price":1.00000000,"amount":-config_env[''GLOBAL_CLIENT_ID'']0.00000000,"transactionTypeCode":"ACMT-
        ADOP-BCKV"},{"id":9250,"clientId":config_env[''GLOBAL_CLIENT_ID''],"serviceEntityId":35,"serviceEntityName":"Complete
        Custody","assetSymbol":"USD","assetName":"United States Dollar","assetAccountId":2366,"date":"2021-08-17T08:40:49.23","valuationDate":"2021-01-25T00:00:00","executionDate":"2021-01-25T00:00:00","transactionNumber":"BNK1/2021/0011","reference":"CMP-ED7ICP","description":"payment
        to Konrad 01","qty":-50.00000000,"price":1.00000000,"amount":-50.00000000,"transactionTypeCode":"ACMT-
        ADOP-BCKV"},{"id":9251,"clientId":config_env[''GLOBAL_CLIENT_ID''],"serviceEntityId":35,"serviceEntityName":"Complete
        Custody","assetSymbol":"USD","assetName":"United States Dollar","assetAccountId":2366,"date":"2021-08-17T08:40:49.2333333","valuationDate":"2021-01-25T00:00:00","executionDate":"2021-01-25T00:00:00","transactionNumber":"BNK1/2021/0007","reference":"CMR-XIH8H6","description":"Deposit
        to BnkToTheFuture Test Co Limited","qty":2200.00000000,"price":1.00000000,"amount":2200.00000000,"transactionTypeCode":"ACMT-
        ADOP-BCKV"},{"id":9252,"clientId":config_env[''GLOBAL_CLIENT_ID''],"serviceEntityId":35,"serviceEntityName":"Complete
        Custody","assetSymbol":"USD","assetName":"United States Dollar","assetAccountId":2366,"date":"2021-08-17T08:40:49.2333333","valuationDate":"2021-01-25T00:00:00","executionDate":"2021-01-25T00:00:00","transactionNumber":"BNK1/2021/0008","reference":"CMR-UCM7ZG","description":"deposit
        to BnkToTheFuture Test Co Limited","qty":500.00000000,"price":1.00000000,"amount":500.00000000,"transactionTypeCode":"ACMT-
        ADOP-BCKV"},{"id":9253,"clientId":config_env[''GLOBAL_CLIENT_ID''],"serviceEntityId":35,"serviceEntityName":"Complete
        Custody","assetSymbol":"USD","assetName":"United States Dollar","assetAccountId":2366,"date":"2021-08-17T08:40:49.2333333","valuationDate":"2021-01-25T00:00:00","executionDate":"2021-01-25T00:00:00","transactionNumber":"BNK1/2021/0010","reference":"CMR-4TD05Z","description":"Deposit
        to BnkToTheFuture Test Co Limited","qty":100.00000000,"price":1.00000000,"amount":100.00000000,"transactionTypeCode":"ACMT-
        ADOP-BCKV"},{"id":9254,"clientId":config_env[''GLOBAL_CLIENT_ID''],"serviceEntityId":35,"serviceEntityName":"Complete
        Custody","assetSymbol":"USD","assetName":"United States Dollar","assetAccountId":2366,"date":"2021-08-17T08:40:49.2333333","valuationDate":"2021-01-25T00:00:00","executionDate":"2021-01-25T00:00:00","transactionNumber":"BNK1/2021/0009","reference":"CMR-4TD05Z","description":"Deposit
        to BnkToTheFuture Test Co Limited","qty":200.00000000,"price":1.00000000,"amount":200.00000000,"transactionTypeCode":"ACMT-
        ADOP-BCKV"},{"id":9267,"clientId":config_env[''GLOBAL_CLIENT_ID''],"serviceEntityId":35,"serviceEntityName":"Complete
        Custody","assetSymbol":"USD","assetName":"United States Dollar","assetAccountId":2366,"date":"2021-08-17T08:40:49.2433333","valuationDate":"2021-01-29T00:00:00","executionDate":"2021-01-29T00:00:00","transactionNumber":"BNK1/2021/0023","reference":"CMR-SQP3OB","description":"BnkToTheFuture
        Test Co Limited","qty":5000.00000000,"price":1.00000000,"amount":5000.00000000,"transactionTypeCode":"ACMT-
        ADOP-BCKV"},{"id":9268,"clientId":config_env[''GLOBAL_CLIENT_ID''],"serviceEntityId":35,"serviceEntityName":"Complete
        Custody","assetSymbol":"USD","assetName":"United States Dollar","assetAccountId":2366,"date":"2021-08-17T08:40:49.2466667","valuationDate":"2021-01-29T00:00:00","executionDate":"2021-01-29T00:00:00","transactionNumber":"BNK1/2021/0022","reference":"CMR-SQP3OB","description":"Deposit
        to BnkToTheFuture Test Co Limited","qty":6000.00000000,"price":1.00000000,"amount":6000.00000000,"transactionTypeCode":"ACMT-
        ADOP-BCKV"},{"id":9270,"clientId":config_env[''GLOBAL_CLIENT_ID''],"serviceEntityId":35,"serviceEntityName":"Complete
        Custody","assetSymbol":"USD","assetName":"United States Dollar","assetAccountId":2366,"date":"2021-08-17T08:40:49.2466667","valuationDate":"2021-01-29T00:00:00","executionDate":"2021-01-29T00:00:00","transactionNumber":"BNK1/2021/0020","reference":"CMR-4TD05Z","description":"Deposit
        to BnkToTheFuture Test Co Limited","qty":1000.00000000,"price":1.00000000,"amount":1000.00000000,"transactionTypeCode":"ACMT-
        ADOP-BCKV"},{"id":9271,"clientId":config_env[''GLOBAL_CLIENT_ID''],"serviceEntityId":35,"serviceEntityName":"Complete
        Custody","assetSymbol":"USD","assetName":"United States Dollar","assetAccountId":2366,"date":"2021-08-17T08:40:49.2466667","valuationDate":"2021-01-29T00:00:00","executionDate":"2021-01-29T00:00:00","transactionNumber":"BNK1/2021/0019","reference":"CMR-4TD05Z
        ","description":"Deposit to BnkToTheFuture Test Co Limited","qty":2000.00000000,"price":1.00000000,"amount":2000.00000000,"transactionTypeCode":"ACMT-
        ADOP-BCKV"},{"id":9272,"clientId":config_env[''GLOBAL_CLIENT_ID''],"serviceEntityId":35,"serviceEntityName":"Complete
        Custody","assetSymbol":"USD","assetName":"United States Dollar","assetAccountId":2366,"date":"2021-08-17T08:40:49.25","valuationDate":"2021-01-29T00:00:00","executionDate":"2021-01-29T00:00:00","transactionNumber":"BNK1/2021/0018","reference":"CMR-4TD05Z","description":"\tDeposit
        to BnkToTheFuture Test Co Limited","qty":config_env[''GLOBAL_CLIENT_ID'']00.00000000,"price":1.00000000,"amount":config_env[''GLOBAL_CLIENT_ID'']00.00000000,"transactionTypeCode":"ACMT-
        ADOP-BCKV"},{"id":9273,"clientId":config_env[''GLOBAL_CLIENT_ID''],"serviceEntityId":35,"serviceEntityName":"Complete
        Custody","assetSymbol":"USD","assetName":"United States Dollar","assetAccountId":2366,"date":"2021-08-17T08:40:49.25","valuationDate":"2021-01-29T00:00:00","executionDate":"2021-01-29T00:00:00","transactionNumber":"BNK1/2021/0017","reference":"CMR-UCM7ZG","description":"Deposit
        to BnkToTheFuture Test Co Limited","qty":500.00000000,"price":1.00000000,"amount":500.00000000,"transactionTypeCode":"ACMT-
        ADOP-BCKV"},{"id":9274,"clientId":config_env[''GLOBAL_CLIENT_ID''],"serviceEntityId":35,"serviceEntityName":"Complete
        Custody","assetSymbol":"USD","assetName":"United States Dollar","assetAccountId":2366,"date":"2021-08-17T08:40:49.25","valuationDate":"2021-01-29T00:00:00","executionDate":"2021-01-29T00:00:00","transactionNumber":"BNK1/2021/0016","reference":"CMR-UCM7ZG","description":"Deposit
        to BnkToTheFuture Test Co Limited","qty":1500.00000000,"price":1.00000000,"amount":1500.00000000,"transactionTypeCode":"ACMT-
        ADOP-BCKV"},{"id":9275,"clientId":config_env[''GLOBAL_CLIENT_ID''],"serviceEntityId":35,"serviceEntityName":"Complete
        Custody","assetSymbol":"USD","assetName":"United States Dollar","assetAccountId":2366,"date":"2021-08-17T08:40:49.25","valuationDate":"2021-01-29T00:00:00","executionDate":"2021-01-29T00:00:00","transactionNumber":"BNK1/2021/0015","reference":"CMR-UCM7ZG","description":"Deposit
        to BnkToTheFuture Test Co Limited","qty":2000.00000000,"price":1.00000000,"amount":2000.00000000,"transactionTypeCode":"ACMT-
        ADOP-BCKV"},{"id":9276,"clientId":config_env[''GLOBAL_CLIENT_ID''],"serviceEntityId":35,"serviceEntityName":"Complete
        Custody","assetSymbol":"USD","assetName":"United States Dollar","assetAccountId":2366,"date":"2021-08-17T08:40:49.25","valuationDate":"2021-01-29T00:00:00","executionDate":"2021-01-29T00:00:00","transactionNumber":"BNK1/2021/0014","reference":"CMR-XIH8H6","description":"Deposit
        to BnkToTheFuture Test Co Limited","qty":2200.00000000,"price":1.00000000,"amount":2200.00000000,"transactionTypeCode":"ACMT-
        ADOP-BCKV"}]}'
  recorded_at: Mon, 14 Feb 2022 13:19:58 GMT
recorded_with: VCR 6.0.0
